Measures of Association
…
Three products: car, soap, and dishwasher

Operational hypothesis: people in the high-status condition will choose the green products more often than people in the control condition

Green Study: Data

Here’s what the data may look like

CONDITION: control story or experimental (high-status) story

CHOICE: product choice, either green or luxury

We’ll just look at the results for one of the three products - the car

# A tibble: 443 x 6
   ID_CODE GENDER   AGE CONDITION PRODUCT    CHOICE
   <fct>   <fct>  <dbl> <fct>     <fct>      <fct> 
 1 WYYJ    male      25 control   dishwasher luxury
 2 WYYJ    male      25 control   cleaner    green 
 3 WYYJ    male      25 control   car        luxury
 4 TBSY    female    19 control   dishwasher green 
 5 TBSY    female    19 control   cleaner    luxury
 6 TBSY    female    19 control   car        green 
 7 CVWL    female    18 control   dishwasher green 
 8 CVWL    female    18 control   cleaner    green 
 9 CVWL    female    18 control   car        luxury
10 ILVB    other     21 control   dishwasher green 
# ... with 433 more rows
…
