Comparing Two Means
…
Conceptual hypothesis: Does colour influence attractiveness?

How could you state the operational hypothesis of this study?

Does viewing a different colour frame around an image of a moderately attractive man influence the mean ratings of his attractiveness?

Red Study: Data

The (simulated) data might look something like this:

group: Experimental colour condition, either control (white) or experimental (red)

attract: Mean of three attractiveness ratings

# A tibble: 150 x 7
   id_code years group   item_1 item_2 item_3 attract
   <fct>   <chr> <fct>    <dbl>  <dbl>  <dbl>   <dbl>
 1 SAUU    21    control      6      9      5    6.67
 2 JVNJ    16    control      6      5      5    5.33
 3 GIOU    19    control      6      6      5    5.67
 4 EIYN    23    control      8      6      8    7.33
 5 EEBJ    16    control      5      6      4    5   
 6 YLOA    21    control      8      5      8    7   
 7 TCFJ    19    control      5      6      2    4.33
 8 JFOT    20    control      6      6      3    5   
 9 TZLY    23    control      6      6      3    5   
10 WFYH    22    control      7      4      6    5.67
# ... with 140 more rows
…
